[
   {
   "id" : "data-algo",
   "nameEn" : "Data Structures and Algorithms",
   "nameFi" : "Tietorakenteet ja algoritmit",
   "nameSe" : "Datastrukturer och algoritmer",
   "termsURL": "https://gitlab.com/sanasto/tira-sanasto/-/raw/main/sanasto.json"
   }
]
