[
  {
    "id": "acyclic__graph",
    "english": "acyclic (graph)",
    "englishLink": "https://mathworld.wolfram.com/AcyclicGraph.html",
    "finnishLink": "https://fi.wikipedia.org/wiki/Suunnattu_syklit%C3%B6n_verkko",
    "finnish": "syklitön",
    "definition": "Verkko, jossa ei ole sykliä eli kehää"
  },
  {
    "id": "acyclic_graph",
    "english": "acyclic graph",
    "englishLink": "https://mathworld.wolfram.com/AcyclicGraph.html",
    "finnishLink": "https://fi.wikipedia.org/wiki/Suunnattu_syklit%C3%B6n_verkko",
    "finnish": "syklitön",
    "definition": "Verkko, jossa ei ole sykliä eli kehää"
  },
  {
    "id": "adjacency_list",
    "english": "adjacency list",
    "englishLink": "https://en.wikipedia.org/wiki/Adjacency_list",
    "finnishLink": "https://tieteentermipankki.fi/wiki/Nimitys:vieruslista",
    "finnish": "vieruslista",
    "definition": "Lista, joka sisältää kaikki solmut, joihin on kaari tietystä solmusta."
  },
  {
    "id": "adjacency_matrix",
    "english": "adjacency matrix",
    "englishLink": "https://en.wikipedia.org/wiki/Adjacency_matrix",
    "finnishLink": "https://tieteentermipankki.fi/wiki/Tietojenk%C3%A4sittelytiede:vierusmatriisi",
    "finnish": "vierusmatriisi",
    "definition": "Neliömatriisi, jonka arvot osoittavat, onko olemassa kaari solmusta toiseen."
  },
  {
    "id": "algorithm",
    "english": "algorithm",
    "englishLink": "https://en.wikipedia.org/wiki/Algorithm",
    "finnishLink": "https://fi.wikipedia.org/wiki/Algoritmi",
    "finnish": "algoritmi",
    "definition": "Yksityiskohtainen kuvaus jota seuraamalla voidaan ratkaista tietty laskennallinen ongelma."
  },
  {
    "id": "amortized__time_complexity",
    "english": "amortized (time complexity)",
    "englishLink": "https://en.wikipedia.org/wiki/Amortized_analysis",
    "finnishLink": "https://tieteentermipankki.fi/wiki/Tietojenk%C3%A4sittelytiede:tasoitettu_analyysi",
    "finnish": "tasoitettu",
    "definition": "Tapa analysoida algoritmin aikakompleksisuutta tai resurssitarpeita huomioimalla sekä paljon että vähän resursseja vaativat tapaukset sen sijaan, että tarkasteltaisiin vain eniten resursseja vaativia tapauksia."
  },
  {
    "id": "ancestor__in_a_tree",
    "english": "ancestor (in a tree)",
    "englishLink": "-",
    "finnishLink": "",
    "finnish": "esivanhempi",
    "definition": "Jokin solmusta juureen johtavan polun solmuista."
  },
  {
    "id": "array",
    "english": "array",
    "englishLink": "https://en.wikipedia.org/wiki/Array_data_structure",
    "finnishLink": "https://fi.wikipedia.org/wiki/Taulukko_(tietorakenne)",
    "finnish": "taulukko",
    "definition": "Ryhmä kahdesta tai useammasta loogisesti toisiinsa liittyvästä elementistä, jotka tunnistetaan yhteisellä nimellä."
  },
  {
    "id": "array_list",
    "english": "array list",
    "englishLink": "-",
    "finnishLink": "-",
    "finnish": "taulukkolista",
    "definition": "Ks. lista"
  },
  {
    "id": "articulation_point__in_a_graph",
    "english": "articulation point (in a graph)",
    "englishLink": "https://en.wikipedia.org/wiki/Biconnected_component",
    "finnishLink": "",
    "finnish": "leikkaussolmu",
    "definition": "Verkon (yhtenäisen komponentin) solmu, jonka poistaminen jakaa verkon (komponentin) kahteen tai useampaan osaverkkoon. "
  },
  {
    "id": "augmenting_path",
    "english": "augmenting path",
    "englishLink": "https://en.wikipedia.org/wiki/Flow_network#Augmenting_paths",
    "finnishLink": "",
    "finnish": "täydentävä polku (oli: laajentava)",
    "definition": "Polku joka parantaa jo löydettyä sovitusta/virtausta/tms."
  },
  {
    "id": "backtracking",
    "english": "backtracking",
    "englishLink": "https://en.wikipedia.org/wiki/Backtracking",
    "finnishLink": "",
    "finnish": "peruuttava haku",
    "definition": "Algoritmi, joka etsii ratkaisua laskennalliseen ongelmaan hylkäämällä vaihtoehtoja (peruuttamalla), jotka eivät voi johtaa ratkaisuun."
  },
  {
    "id": "balanced_binary_tree",
    "english": "balanced binary tree",
    "englishLink": "https://en.wikipedia.org/wiki/Binary_tree",
    "finnishLink": "",
    "finnish": "tasapainotettu binääripuu",
    "definition": "Binääripuu jonka jokaisen solmun vasemman ja oikean alipuun korkeusero on pieni."
  },
  {
    "id": "balanced_search_tree",
    "english": "balanced search tree",
    "englishLink": "-",
    "finnishLink": "",
    "finnish": "tasapainotettu hakupuu",
    "definition": "Tasapainotettu sisäjärjestetty binääripuu."
  },
  {
    "id": "balanced_tree",
    "english": "balanced tree",
    "englishLink": "https://en.wikipedia.org/wiki/Self-balancing_binary_search_tree",
    "finnishLink": "",
    "finnish": "tasapainotettu puu",
    "definition": "Puu jonka haarojen korkeudet pidetään suunnilleen yhtä suurina (jolloin puun korkeus pysyy logaritmisena)"
  },
  {
    "id": "biconnected__graph",
    "english": "biconnected (graph)",
    "englishLink": "https://en.wikipedia.org/wiki/Biconnected_component",
    "finnishLink": "",
    "finnish": "2-yhtenäinen",
    "definition": "(Suuntaamaton) verkko jossa jokaisen solmuparin välillä on vähintään kaksi erillistä polkua."
  },
  {
    "id": "binary_heap",
    "english": "binary heap",
    "englishLink": "https://en.wikipedia.org/wiki/Binary_heap",
    "finnishLink": "(https://fi.wikipedia.org/wiki/Keko_(tietorakenne))",
    "finnish": "binäärikeko",
    "definition": "Eräs tapa toteuttaa prioriteettijono loogisesti binääripuuta muistuttavalla tietorakenteella. "
  },
  {
    "id": "binary_search",
    "english": "binary search",
    "englishLink": "https://en.wikipedia.org/wiki/Binary_search_algorithm",
    "finnishLink": "https://fi.wikipedia.org/wiki/Puolitushaku",
    "finnish": "binäärihaku",
    "definition": "Hakualgoritmi tiedon etsimiseen järjestetystä taulukosta."
  },
  {
    "id": "binary_search_tree",
    "english": "binary search tree",
    "englishLink": "https://en.wikipedia.org/wiki/Binary_search_tree",
    "finnishLink": "https://fi.wikipedia.org/wiki/Bin%C3%A4%C3%A4rinen_hakupuu",
    "finnish": "binäärihakupuu",
    "definition": "Hakurakenne, joka on toteutettu binääripuun avulla."
  },
  {
    "id": "binary_tree",
    "english": "binary tree",
    "englishLink": "https://en.wikipedia.org/wiki/Binary_tree",
    "finnishLink": "https://fi.wikipedia.org/wiki/Bin%C3%A4%C3%A4ripuu",
    "finnish": "binääripuu",
    "definition": "Puumainen tietorakenne, jonka jokaisella solmulla voi olla enintään kaksi lapsisolmua."
  },
  {
    "id": "bipartite__graph",
    "english": "bipartite (graph)",
    "englishLink": "https://en.wikipedia.org/wiki/Graph_(discrete_mathematics)#Bipartite_graph",
    "finnishLink": "",
    "finnish": "kaksijakoinen",
    "definition": "Verkko jonka solmut voidaan jakaa kahteen osajoukkoon siten, että kummankaan osajoukon sisällä solmujen välillä ei ole kaaria."
  },
  {
    "id": "bit-parallel__algorithm",
    "english": "bit-parallel (algorithm)",
    "englishLink": "-",
    "finnishLink": "",
    "finnish": "bittirinnakkainen",
    "definition": ""
  },
  {
    "id": "breadth-first_search",
    "english": "breadth-first search",
    "englishLink": "https://en.wikipedia.org/wiki/Breadth-first_search",
    "finnishLink": "https://fi.wikipedia.org/wiki/Leveyssuuntainen_l%C3%A4pik%C3%A4ynti",
    "finnish": "leveyshaku",
    "definition": "Algoritmin etenemistapa verkossa tai puussa jossa edetään vuorotellen kutakin haaraa myöten siten, että aina samalla etäisyydellä lähtösolmusta sijaitsevat solmut tulevat käsitellyksi peräkkäin (lähimmät ennen kauempia)."
  },
  {
    "id": "bridge__in_a_graph",
    "english": "bridge (in a graph)",
    "englishLink": "https://en.wikipedia.org/wiki/Bridge_(graph_theory)",
    "finnishLink": "",
    "finnish": "silta",
    "definition": "Kaari jonka poistaminen jakaa (suuntaamattoman) verkon kahteen erilliseen komponenttiin."
  },
  {
    "id": "bubble_sort",
    "english": "bubble sort",
    "englishLink": "https://en.wikipedia.org/wiki/Bubble_sort",
    "finnishLink": "https://fi.wikipedia.org/wiki/Kuplalajittelu",
    "finnish": "kuplajärjestäminen",
    "definition": "Tehoton järjestämisalgoritmi joka vertailee vierekkäisiä alkioita ja tarvittaessa korjaa niiden järjestyksen."
  },
  {
    "id": "cast__of_type",
    "english": "cast (of type)",
    "englishLink": "https://en.wikipedia.org/wiki/Type_conversion",
    "finnishLink": "",
    "finnish": "pakotettu tyypinmuunnos",
    "definition": "Lausekkeen tietotyypin muuntaminen toiseksi. "
  },
  {
    "id": "chained_hashing",
    "english": "chained hashing",
    "englishLink": "https://en.wikipedia.org/wiki/Hash_table#Separate_chaining",
    "finnishLink": "",
    "finnish": "erillinen ketjutus",
    "definition": "Hajautusmenetelmä jossa hajautustaulun jokaisessa kotiosoitteessa (indeksissä) on lista (tms.) ja kukin alkio voidaan sijoittaa kotiosoitteeseen."
  },
  {
    "id": "child__in_a_tree",
    "english": "child (in a tree)",
    "englishLink": "https://en.wikipedia.org/wiki/Tree_(data_structure)",
    "finnishLink": "",
    "finnish": "lapsisolmu",
    "definition": "Puu -tietorakenteen solmu jossa solmulla on vanhempi. Ks. puu."
  },
  {
    "id": "clique",
    "english": "clique",
    "englishLink": "https://en.wikipedia.org/wiki/Clique_(graph_theory)",
    "finnishLink": "",
    "finnish": "klikki",
    "definition": "Verkon (maksimaalinen) osa jossa kaikki solmut ovat toistensa naapureita."
  },
  {
    "id": "closed_hashing",
    "english": "closed hashing",
    "englishLink": "https://en.wikipedia.org/wiki/Open_addressing",
    "finnishLink": "",
    "finnish": "suljettu hajautus",
    "definition": "Hajautus jossa kaikki alkiot sijoitetaan hajautustauluun joko kotiosoitteeseen (indeksiin) tai törmäyksen sattuessa yksikäsitteisesti määrättyyn seuraavaan osoitteeseen."
  },
  {
    "id": "collision__hashing",
    "english": "collision (hashing)",
    "englishLink": "https://en.wikipedia.org/wiki/Hash_collision",
    "finnishLink": "",
    "finnish": "törmäys (hajautus)",
    "definition": "Tilanne, jossa kaksi avainta saa saman hajautusfunktion arvon. "
  },
  {
    "id": "collision_resolution",
    "english": "collision resolution",
    "englishLink": "https://en.wikipedia.org/wiki/Hash_table#Collision_resolution",
    "finnishLink": "",
    "finnish": "törmäysten käsittely",
    "definition": "Menetelmä, jolla hajautusrakenteessa käsitellään törmäykset. "
  },
  {
    "id": "coloring",
    "english": "coloring",
    "englishLink": "https://en.wikipedia.org/wiki/Graph_coloring",
    "finnishLink": "",
    "finnish": "väritys",
    "definition": "Tapa värittää verkon solmut (siten, että minkän kaaren päissä olevat solmut eivät ole saman värisiä)."
  },
  {
    "id": "compexity_class",
    "english": "compexity class",
    "englishLink": "https://en.wikipedia.org/wiki/Complexity_class",
    "finnishLink": "",
    "finnish": "vaativuusluokka",
    "definition": "Luokka eri laskennallisille ongelmille, jotka vaativat saman määrän resursseja tietyn kokoisilla syötteillä."
  },
  {
    "id": "complete_graph",
    "english": "complete graph",
    "englishLink": "https://en.wikipedia.org/wiki/Graph_(discrete_mathematics)#Complete_graph",
    "finnishLink": "",
    "finnish": "täydellinen verkko",
    "definition": "Verkko jossa on kaari jokaisen solmuparin välillä."
  },
  {
    "id": "component__of_a_graph",
    "english": "component (of a graph)",
    "englishLink": "https://en.wikipedia.org/wiki/Component_(graph_theory)",
    "finnishLink": "",
    "finnish": "komponentti",
    "definition": "(Suuntaamattoman) verkon solmut joiden välillä on polku."
  },
  {
    "id": "connected__graph",
    "english": "connected (graph)",
    "englishLink": "https://en.wikipedia.org/wiki/Connectivity_(graph_theory)",
    "finnishLink": "",
    "finnish": "yhtenäinen",
    "definition": "(Suuntamaton) verkko jonka kaikista solmuista on polku muihin solmuihin."
  },
  {
    "id": "constant_factor",
    "english": "constant factor",
    "englishLink": "-",
    "finnishLink": "",
    "finnish": "vakiokerroin",
    "definition": "Kerroin, joka ei riipu käsiteltävän syötteen alkioiden määrästä (tai muusta vastaavasta suureesta)."
  },
  {
    "id": "constant-time__algorithm",
    "english": "constant-time (algorithm)",
    "englishLink": "https://en.wikipedia.org/wiki/Time_complexity",
    "finnishLink": "",
    "finnish": "vakioaikainen",
    "definition": "Algoritmi, jonka aikavaativuus ei riipu käsiteltävän syötteen alkioiden määrästä (tai muusta vastaavasta suureesta)."
  },
  {
    "id": "convex_hull",
    "english": "convex hull",
    "englishLink": "https://en.wikipedia.org/wiki/Convex_hull",
    "finnishLink": "",
    "finnish": "konveksi peite",
    "definition": "Hahmon pienin sellainen pisteiden joukko, jonka muodostama piiri pitää sisällään kaikki hahmon pisteet."
  },
  {
    "id": "counting_sort",
    "english": "counting sort",
    "englishLink": "https://en.wikipedia.org/wiki/Counting_sort",
    "finnishLink": "https://fi.wikipedia.org/wiki/Laskentalajittelu",
    "finnish": "laskentajärjestäminen",
    "definition": "Pienehköille kokonaisluvuille (tms.) soveltuva järjestämisalgoritmi joka laskee kunkin luvun esiintymismäärät ja luo niistä tuloskokoelman."
  },
  {
    "id": "cover__in_a_graph",
    "english": "cover (in a graph)",
    "englishLink": "-",
    "finnishLink": "",
    "finnish": "peite",
    "definition": ""
  },
  {
    "id": "cubic__algorithm",
    "english": "cubic (algorithm)",
    "englishLink": "https://en.wikipedia.org/wiki/Time_complexity",
    "finnishLink": "",
    "finnish": "kuutiollinen",
    "definition": "Algoritmi jonka aikavaativuus on kertaluokaltaan syötteen alkioiden määrän (tai muun vastaavan suureen) kolmas potenssi."
  },
  {
    "id": "cut__in_a_graph",
    "english": "cut (in a graph)",
    "englishLink": "https://en.wikipedia.org/wiki/Cut_(graph_theory)",
    "finnishLink": "",
    "finnish": "leikkaus",
    "definition": "Verkon solmujen jako kahteen toisensa poissulkevaan osajoukkoon."
  },
  {
    "id": "cycle",
    "english": "cycle",
    "englishLink": "https://en.wikipedia.org/wiki/Cycle_(graph_theory)",
    "finnishLink": "",
    "finnish": "sykli",
    "definition": "Polku jonka ensimmäinen ja viiminen solmu ovat samat."
  },
  {
    "id": "data_structure",
    "english": "data structure",
    "englishLink": "https://en.wikipedia.org/wiki/Data_structure",
    "finnishLink": "https://fi.wikipedia.org/wiki/Tietorakenne",
    "finnish": "tietorakenne",
    "definition": "Tapa tallentaa tietoa siten, että sitä voidaan käyttää mahdollisimman tehokkaasti."
  },
  {
    "id": "decision_problem",
    "english": "decision problem",
    "englishLink": "https://en.wikipedia.org/wiki/Decision_problem",
    "finnishLink": "",
    "finnish": "päätösongelma",
    "definition": "Laskennallinen ongelma, jonka ratkaisu on joko kyllä tai ei. "
  },
  {
    "id": "decision_tree",
    "english": "decision tree",
    "englishLink": "https://en.wikipedia.org/wiki/Decision_tree",
    "finnishLink": "",
    "finnish": "päätöspuu",
    "definition": "Puu jossa kuvataan algoritmin toiminnan etenemistä alkaen kaikista mahdollisista tuloksista (puun juuressa) kuhunkin yksittäiseen tulokseen (puun lehtisolmut)."
  },
  {
    "id": "degree__of_a_node",
    "english": "degree (of a node)",
    "englishLink": "https://en.wikipedia.org/wiki/Degree_(graph_theory)",
    "finnishLink": "",
    "finnish": "aste",
    "definition": "Solmuun liittyvien kaarten määrä."
  },
  {
    "id": "dense__graph",
    "english": "dense (graph)",
    "englishLink": "https://en.wikipedia.org/wiki/Dense_graph",
    "finnishLink": "",
    "finnish": "tiheä",
    "definition": "Verkko jossa on suhteellisen paljon kaaria."
  },
  {
    "id": "depth-first_search",
    "english": "depth-first search",
    "englishLink": "https://en.wikipedia.org/wiki/Depth-first_search",
    "finnishLink": "",
    "finnish": "syvyyshaku",
    "definition": "Algoritmin etenemistapa verkossa tai puussa jossa edetään yhtä haaraa mahdollisimman pitkälle ennenkuin palataan edelliseen mahdolliseen haarakohtaan josta taas edetään mahdollisimman pitkälle."
  },
  {
    "id": "deque",
    "english": "deque",
    "englishLink": "https://en.wiktionary.org/wiki/deque",
    "finnishLink": "",
    "finnish": "pakka",
    "definition": "Peräkkäistietorakenne jossa lisäys ja poisto ovat mahdollisia vain molempiin päihin/päistä."
  },
  {
    "id": "dictionary",
    "english": "dictionary",
    "englishLink": "https://en.wikipedia.org/wiki/Associative_array",
    "finnishLink": "",
    "finnish": "sanakirja",
    "definition": "Kokoelma (avain, arvo) -pareja s.e. yksittäinen avain voi esiintyä siinä vain kerran."
  },
  {
    "id": "directed__graph",
    "english": "directed (graph)",
    "englishLink": "https://en.wikipedia.org/wiki/Directed_graph",
    "finnishLink": "",
    "finnish": "suunnattu (verkko)",
    "definition": "Verkko jossa solmujen väliset suhteet (kaaret) ovat yksisuuntaisia."
  },
  {
    "id": "directed_acyclic_graph__DAG",
    "english": "directed acyclic graph (DAG)",
    "englishLink": "https://en.wikipedia.org/wiki/Directed_acyclic_graph",
    "finnishLink": "",
    "finnish": "suunnatty syklitön verkko",
    "definition": "Suunnattu verkko  jossa ei ole sykliä eli kehää."
  },
  {
    "id": "divide-and-conquer",
    "english": "divide-and-conquer",
    "englishLink": "https://en.wikipedia.org/wiki/Divide-and-conquer_algorithm",
    "finnishLink": "",
    "finnish": "hajota-ja-hallitse",
    "definition": "Algoritmistrategia jossa paloitellaan tehtävä pienemmiksi osatehtäviksi, ratkaistaan osatehtävät rekursiivisesti ja lopuksi yhdistetään osaratkaisut lopulliseksi ratkaisuksi."
  },
  {
    "id": "dynamic_programming",
    "english": "dynamic programming",
    "englishLink": "https://en.wikipedia.org/wiki/Dynamic_programming",
    "finnishLink": "",
    "finnish": "dynaaminen ohjelmointi",
    "definition": "Algoritmistrategia jossa edetään pienemmistä syötteistä suurempiin ja suurempia syötteitä ratkaistaessa hyödynnetään pienempien syötteiden tuloksia."
  },
  {
    "id": "edge",
    "english": "edge",
    "englishLink": "https://en.wikipedia.org/wiki/Graph_theory",
    "finnishLink": "",
    "finnish": "kaari",
    "definition": "Verkon solmujen keskinäinen suhde. Suunnattu tai suuntaamaton (symmetrinen)."
  },
  {
    "id": "edge_list",
    "english": "edge list",
    "englishLink": "https://en.wikipedia.org/wiki/Edge_list",
    "finnishLink": "",
    "finnish": "kaarilista",
    "definition": "Verkon toteutustapa jossa jokainen solmu ylläpitää siitä (lähtevien) kaarten listaa."
  },
  {
    "id": "encapsulation",
    "english": "encapsulation",
    "englishLink": "https://en.wikipedia.org/wiki/Encapsulation_(computer_programming)",
    "finnishLink": "",
    "finnish": "kapselointi",
    "definition": "Periaate jonka mukaan kokoelmaa (tai muuta moduulia) käytetään vain liittymän kautta ilman että muodostuu riippuvuuksia kokoelman toteutuksen ja sitä käyttävän ohjelmanosan välille."
  },
  {
    "id": "Eulerian_circuit",
    "english": "Eulerian circuit",
    "englishLink": "https://en.wikipedia.org/wiki/Eulerian_path",
    "finnishLink": "",
    "finnish": "Eulerin kierros",
    "definition": "Verkon sykli (eli kehä) joka käyttää jokaista kaarta täsmälleen kerran."
  },
  {
    "id": "Eulerian_path",
    "english": "Eulerian path",
    "englishLink": "https://en.wikipedia.org/wiki/Eulerian_path",
    "finnishLink": "",
    "finnish": "Eulerin polku",
    "definition": "Verkon polku joka käyttää jokaista kaarta täsmälleen kerran."
  },
  {
    "id": "exponential__algorithm",
    "english": "exponential (algorithm)",
    "englishLink": "https://en.wikipedia.org/wiki/Time_complexity#Exponential_time",
    "finnishLink": "",
    "finnish": "eksponentiaalinen",
    "definition": "Algoritmi jonka aikavaativuus on kertaluokaltaan vakio potenssiin syötteen alkioiden määrä (tai muu vastaava suure)."
  },
  {
    "id": "flow__in_a_graph",
    "english": "flow (in a graph)",
    "englishLink": "https://en.wikipedia.org/wiki/Flow_network",
    "finnishLink": "",
    "finnish": "virtaus",
    "definition": "Suunnatussa painotetussa verkossa laskettava virtauksen yhteissumma annetun solmuparin välillä."
  },
  {
    "id": "generic_programming",
    "english": "generic programming",
    "englishLink": "https://en.wikipedia.org/wiki/Generic_programming",
    "finnishLink": "https://fi.wikipedia.org/wiki/Geneerinen_ohjelmointi",
    "finnish": "geneerinen ohjelmointi",
    "definition": "Ohjelmointiparadigma jossa tietorakenteet ja/tai algoritmit määritellään metatyypeillä. Metatyyppi korvataan konkreettisella parametrilla tietorakennetta tai algoritmia käytettäessä. Katso myös template."
  },
  {
    "id": "graph",
    "english": "graph",
    "englishLink": "https://en.wikipedia.org/wiki/Graph_(abstract_data_type)",
    "finnishLink": "",
    "finnish": "verkko",
    "definition": "Abstrakti tietotyyppi, jonka toteutus koostuu solmuista ja niiden välisistä yhteyksistä. "
  },
  {
    "id": "greedy__algorithm",
    "english": "greedy (algorithm)",
    "englishLink": "https://en.wikipedia.org/wiki/Greedy_algorithm",
    "finnishLink": "",
    "finnish": "ahne algoritmi",
    "definition": "Algoritmi joka kussakin vaiheessa valitsee siinä vaiheessa parhaalta näyttävän vaihtoehdon."
  },
  {
    "id": "Hamiltonian_circuit",
    "english": "Hamiltonian circuit",
    "englishLink": "https://en.wikipedia.org/wiki/Hamiltonian_path",
    "finnishLink": "",
    "finnish": "Hamiltonin kierros",
    "definition": "Verkon sykli (eli kehä)  joka käy jokaisessa solmussa täsmälleen kerran."
  },
  {
    "id": "Hamiltonian_path",
    "english": "Hamiltonian path",
    "englishLink": "https://en.wikipedia.org/wiki/Hamiltonian_path",
    "finnishLink": "",
    "finnish": "Hamiltonin polku",
    "definition": "Verkon polku joka käy jokaisessa solmussa täsmälleen kerran."
  },
  {
    "id": "hash_function",
    "english": "hash function",
    "englishLink": "https://en.wikipedia.org/wiki/Hash_function",
    "finnishLink": "https://fi.wikipedia.org/wiki/Hajautusalgoritmi",
    "finnish": "hajautusfunktio",
    "definition": "Funktio joka laskee alkiolle lukuarvon (jotka jakautuvat suhteellisen tasaisesti annetulle kokonaislukuvälille)"
  },
  {
    "id": "hash_table",
    "english": "hash table",
    "englishLink": "https://en.wikipedia.org/wiki/Hash_table",
    "finnishLink": "",
    "finnish": "hajautustaulu",
    "definition": "Taulukko jonne alkiot sijoitetaan hajautusfunktion osoittamiin indekseihin."
  },
  {
    "id": "hash_value",
    "english": "hash value",
    "englishLink": "https://en.wikipedia.org/wiki/Hash_function",
    "finnishLink": "https://fi.wikipedia.org/wiki/Hajautusalgoritmi",
    "finnish": "hajautusarvo",
    "definition": "Hajautusfunktion antama lukuarvo."
  },
  {
    "id": "heap",
    "english": "heap",
    "englishLink": "https://en.wikipedia.org/wiki/Heap_(data_structure)",
    "finnishLink": "https://fi.wikipedia.org/wiki/Keko_(tietorakenne)",
    "finnish": "keko",
    "definition": "Prioriteettijonon toteutusrakenne jossa jokaisen solmun prioriteetti on parempi kuin kummankaan lapsensa prioriteetti."
  },
  {
    "id": "heap_sort",
    "english": "heap sort",
    "englishLink": "https://en.wikipedia.org/wiki/Heapsort",
    "finnishLink": "https://fi.wikipedia.org/wiki/Kekolajittelu",
    "finnish": "kekojärjestäminen",
    "definition": "Järjestämisalgoritmi jossa alkiot siirretään prioriteettijonoon ja sieltä takaisin syötteeseen järjestyksessä."
  },
  {
    "id": "heigth__of_a_tree",
    "english": "heigth (of a tree)",
    "englishLink": "https://en.wikipedia.org/wiki/Tree_(data_structure)#Terminology",
    "finnishLink": "",
    "finnish": "(puun) korkeus",
    "definition": "Puun pisimmän juurisolmusta lehtisolmuun johtavan polun pituus (solmun korkeus: pisimmän lehtisolmuun johtavan polun pituus)."
  },
  {
    "id": "indegree",
    "english": "indegree",
    "englishLink": "https://en.wikipedia.org/wiki/Directed_graph#Indegree_and_outdegree",
    "finnishLink": "",
    "finnish": "tuloaste",
    "definition": "Verkon solmuun tulevien kaarten määrä."
  },
  {
    "id": "independent_set",
    "english": "independent set",
    "englishLink": "https://en.wikipedia.org/wiki/Independent_set_(graph_theory)",
    "finnishLink": "",
    "finnish": "riippumaton joukko",
    "definition": ""
  },
  {
    "id": "inorder__of_a_tree",
    "english": "inorder (of a tree)",
    "englishLink": "https://en.wikipedia.org/wiki/Tree_traversal#In-order,_LNR",
    "finnishLink": "",
    "finnish": "sisäjärjestys",
    "definition": "Järjestys ensin käsitellään solmun vasemman alipuun solmut sisäjärjestyksessä, sitten solmu itse ja lopuksi solmun oikean alipuun solmut sisäjärjestyksessä."
  },
  {
    "id": "insertion_sort",
    "english": "insertion sort",
    "englishLink": "https://en.wikipedia.org/wiki/Insertion_sort",
    "finnishLink": "https://fi.wikipedia.org/wiki/Lis%C3%A4yslajittelu",
    "finnish": "lisäysjärjestäminen",
    "definition": "Järjestämisalgoritmi jossa kukin alkio lisätään jo järjestyksessä olevien listaan oikealle kohdalle."
  },
  {
    "id": "intractable_problem",
    "english": "intractable problem",
    "englishLink": "https://en.wikipedia.org/wiki/Computational_complexity_theory#Intractability",
    "finnishLink": "",
    "finnish": "hankala ongelma",
    "definition": "Ongelma, joka teoreettisesti on ratkaistavissa mutta ratkaisun tuottaminen vie liikaa resursseja ollakseen käytännössä hyödyllinen."
  },
  {
    "id": "invariant",
    "english": "invariant",
    "englishLink": "https://en.wikipedia.org/wiki/Invariant_(mathematics)#Invariants_in_computer_science",
    "finnishLink": "",
    "finnish": "invariantti",
    "definition": "Looginen ehto jonka voidaan olettaa olevan totta algoritmin tai sen osan suorituksen aikana. Esimerkiksi silmukkainvariantti on voimassa jokaisen silmukan suoritusaskeleen alussa ja lopussa."
  },
  {
    "id": "knapsack",
    "english": "knapsack",
    "englishLink": "https://en.wikipedia.org/wiki/Knapsack_problem",
    "finnishLink": "",
    "finnish": "repunpakkaus",
    "definition": "Optimointiongelma jossa pyritään valitsemaan annetuista painoista (tai paino-arvo-pareista) (tms) yhdistelmä joka on mahdollisimman lähellä annettua maksimia tai mahdollisimman arvokas."
  },
  {
    "id": "leaf__in_a_tree",
    "english": "leaf (in a tree)",
    "englishLink": "https://en.wikipedia.org/wiki/Tree_(data_structure)#Terminology",
    "finnishLink": "",
    "finnish": "lehti",
    "definition": "Solmu jolla ei ole lapsia."
  },
  {
    "id": "linear__algorithm",
    "english": "linear (algorithm)",
    "englishLink": "https://en.wikipedia.org/wiki/Time_complexity#Linear_time",
    "finnishLink": "",
    "finnish": "lineaarinen",
    "definition": "Algoritmi jonka aikavaativuus on samaa kertaluokkaa kuin sen käsittelemän syötteen alkiomäärä (tai vastaava suure)."
  },
  {
    "id": "linearithmic",
    "english": "linearithmic",
    "englishLink": "https://en.wikipedia.org/wiki/Time_complexity#Quasilinear_time",
    "finnishLink": "",
    "finnish": "nlogn",
    "definition": "Algoritmi jonka aikakompleksisuus on luokkaa O(n log n). Esimerkiksi pikalajittelu tai kekolajittelu."
  },
  {
    "id": "linked_list",
    "english": "linked list",
    "englishLink": "https://en.wikipedia.org/wiki/Linked_list",
    "finnishLink": "",
    "finnish": "linkitetty lista",
    "definition": "Listan dynaaminen totetus jossa jokaista alkiota ylläpitää oma listasolmu. Listasolmuista on viittaus seuraavaan (ja usein edeltävään) listasolmuun."
  },
  {
    "id": "list",
    "english": "list",
    "englishLink": "https://en.wikipedia.org/wiki/List_(abstract_data_type)",
    "finnishLink": "",
    "finnish": "lista",
    "definition": "Peräkkäinen tietorakenne jossa kaikilla alkioilla on edeltäjä ja seuraaja (paitsi ensimmäisellä ja viimeisellä)."
  },
  {
    "id": "loop__in_a_graph",
    "english": "loop (in a graph)",
    "englishLink": "https://en.wikipedia.org/wiki/Loop_(graph_theory)",
    "finnishLink": "",
    "finnish": "silmukka",
    "definition": "Kaari solmusta samaan solmuun."
  },
  {
    "id": "lowest_common_ancestor",
    "english": "lowest common ancestor",
    "englishLink": "https://en.wikipedia.org/wiki/Lowest_common_ancestor",
    "finnishLink": "",
    "finnish": "alin yhteinen esivanhempi",
    "definition": "Puu ja suunnattu verkko -tietorakenteissa: kahden solmun yhteinen edeltävä solmu joka on lähimpänä molempia solmuja."
  },
  {
    "id": "map__associative_array",
    "english": "map (associative array)",
    "englishLink": "https://en.wikipedia.org/wiki/Associative_array",
    "finnishLink": "https://fi.wikipedia.org/wiki/Hakurakenne",
    "finnish": "hakemisto",
    "definition": "Hakemisto (hakurakenne, assosiaatiotaulu) koostuu avain-arvo -pareista. Haku tapahtuu tyypillisesti avaimen perusteella. Esimerkiksi henkilötunnuksen perusteella saadaan henkilön tiedot."
  },
  {
    "id": "matching__in_a_graph",
    "english": "matching (in a graph)",
    "englishLink": "https://en.wikipedia.org/wiki/Matching_(graph_theory)",
    "finnishLink": "",
    "finnish": "pariutus",
    "definition": "Kaksijakoisen verkon kaarten osajoukko siten, että kuhunkin solmuun liittyy enintään yksi kaari."
  },
  {
    "id": "matching__regural_expression",
    "english": "matching (regural expression)",
    "englishLink": "https://en.wikipedia.org/wiki/Regular_expression",
    "finnishLink": "",
    "finnish": "sovittaminen?",
    "definition": ""
  },
  {
    "id": "memoization",
    "english": "memoization",
    "englishLink": "https://en.wikipedia.org/wiki/Memoization",
    "finnishLink": "",
    "finnish": "taulukointi",
    "definition": ""
  },
  {
    "id": "merge_sort",
    "english": "merge sort",
    "englishLink": "https://en.wikipedia.org/wiki/Merge_sort",
    "finnishLink": "https://fi.wikipedia.org/wiki/Lomituslajittelu",
    "finnish": "lomitusjärjestäminen",
    "definition": "Järjestämisalgoritmi jossa ensin järjestetään rekursiivisesti kokoelman puolikkaat ja sitten lomitetaan järjestetyt puolikkaan yhdeksi järjestetyksi kokoelmaksi."
  },
  {
    "id": "merge-find_-set",
    "english": "merge-find -set",
    "englishLink": "",
    "finnishLink": "",
    "finnish": "etsi-liitä-metsä",
    "definition": "Tietorakenne jossa on tehokkaat operaatiot kunkin alkion joukon selvittämiseen sekä joukkojen yhdistämiseen."
  },
  {
    "id": "minimum_spanning_tree",
    "english": "minimum spanning tree",
    "englishLink": "https://en.wikipedia.org/wiki/Minimum_spanning_tree",
    "finnishLink": "",
    "finnish": "pienin virittävä puu",
    "definition": "Kaarten painojen summaltaan pienin kaarten osajoukko joka kytkee verkon kaikki solmut yhteen. "
  },
  {
    "id": "multilist",
    "english": "multilist",
    "englishLink": "",
    "finnishLink": "",
    "finnish": "monilista",
    "definition": "Relaation toteustapa jossa kukin monikko (alkio) linkitetään kunkin monikon osan mukaan."
  },
  {
    "id": "multiset__bag",
    "english": "multiset (bag)",
    "englishLink": "",
    "finnishLink": "",
    "finnish": "monijoukko (laukku)",
    "definition": "Kokoelma jossa voi olla sama alkio useamman kerran. Muuten kuten joukko."
  },
  {
    "id": "neighbor__of_a_node",
    "english": "neighbor (of a node)",
    "englishLink": "",
    "finnishLink": "",
    "finnish": "naapuri",
    "definition": "Solmu johon tästä solmusta on kaari."
  },
  {
    "id": "node_/_vertex",
    "english": "node / vertex",
    "englishLink": "",
    "finnishLink": "",
    "finnish": "solmu",
    "definition": "Verkon perusalkio"
  },
  {
    "id": "NP-complete",
    "english": "NP-complete",
    "englishLink": "https://en.wikipedia.org/wiki/NP-completeness",
    "finnishLink": "",
    "finnish": "NP-täydellinen",
    "definition": ""
  },
  {
    "id": "NP-hard",
    "english": "NP-hard",
    "englishLink": "https://en.wikipedia.org/wiki/NP-hardness",
    "finnishLink": "",
    "finnish": "NP-vaikea",
    "definition": ""
  },
  {
    "id": "offline_algorithm",
    "english": "offline algorithm",
    "englishLink": "https://en.wikipedia.org/wiki/Online_algorithm",
    "finnishLink": "",
    "finnish": "offline-algoritmi",
    "definition": ""
  },
  {
    "id": "online_algorithm",
    "english": "online algorithm",
    "englishLink": "https://en.wikipedia.org/wiki/Online_algorithm",
    "finnishLink": "",
    "finnish": "online-algoritmi",
    "definition": ""
  },
  {
    "id": "open_addressing",
    "english": "open addressing",
    "englishLink": "https://en.wikipedia.org/wiki/Open_addressing",
    "finnishLink": "",
    "finnish": "avoin osoitteenmuodostus",
    "definition": "Hajautuksen törmäysten käsittelutapa jossa alkion kotiosoitteen ollessa varattu sijoitetetaan yksikäsitteisesti määrättyy seuraavaan osoitteeseen."
  },
  {
    "id": "order_of_growth",
    "english": "order of growth",
    "englishLink": "",
    "finnishLink": "",
    "finnish": "kertaluokka",
    "definition": ""
  },
  {
    "id": "outdegree",
    "english": "outdegree",
    "englishLink": "https://en.wikipedia.org/wiki/Directed_graph#Indegree_and_outdegree",
    "finnishLink": "",
    "finnish": "lähtöaste",
    "definition": "Verkon solmun lähtevien kaarten määrä."
  },
  {
    "id": "parent__of_a_node",
    "english": "parent (of a node)",
    "englishLink": "",
    "finnishLink": "",
    "finnish": "vanhempi",
    "definition": "Puun solmu jonka lapsi tämä solmu on"
  },
  {
    "id": "path__in_a_graph",
    "english": "path (in a graph)",
    "englishLink": "",
    "finnishLink": "",
    "finnish": "polku",
    "definition": "Solmujen jono siten, että kunkin peräkkäisen solmun välillä verkossa on kaari."
  },
  {
    "id": "pivot_element__quicksort",
    "english": "pivot element (quicksort)",
    "englishLink": "",
    "finnishLink": "",
    "finnish": "jakoalkio",
    "definition": "Alkio jonka mukaan pikajärjestämisen jaotteluvaihe jakaa alkiot pieniin ja suuriin."
  },
  {
    "id": "postorder__of_a_tree",
    "english": "postorder (of a tree)",
    "englishLink": "",
    "finnishLink": "",
    "finnish": "jälkijärjestys",
    "definition": "Järjestys ensin käsitellään kunkin solmun alipuidenn solmut, kukin esijärjestyksessä ja lopuksi solmu itse."
  },
  {
    "id": "prefix",
    "english": "prefix",
    "englishLink": "https://en.wikipedia.org/wiki/Substring#Prefix",
    "finnishLink": "",
    "finnish": "alkuosa",
    "definition": "Edeltävät alkiot (peräkkäiskokoelmassa)"
  },
  {
    "id": "prefix_sum",
    "english": "prefix sum",
    "englishLink": "",
    "finnishLink": "",
    "finnish": "alkuosasumma",
    "definition": "Edeltävien alkioiden summa peräkkäiskokoelmassa (tai edeltävien ja tämän alkion summa)."
  },
  {
    "id": "preorder__of_a_tree",
    "english": "preorder (of a tree)",
    "englishLink": "",
    "finnishLink": "",
    "finnish": "esijärjestys",
    "definition": "Järjestys jossa kukin solmu käsitellään ensimmäisenä, tämän jälkeen kunkin alipuun solmut, kukin esijärjestyksessä."
  },
  {
    "id": "priority_queue",
    "english": "priority queue",
    "englishLink": "https://en.wikipedia.org/wiki/Priority_queue",
    "finnishLink": "",
    "finnish": "prioriteettijono",
    "definition": "Tietorakenne jossa kullakin alkioille on määritelty tärkeysjärjestys. Perusoperaatiot ovat jonoon lisääminen ja tärkeimmän alkion poisto."
  },
  {
    "id": "quadratic__algorithm",
    "english": "quadratic (algorithm)",
    "englishLink": "",
    "finnishLink": "",
    "finnish": "neliöllinen",
    "definition": "Algoritmi jonka aikavaativuus on kertaluokaltaan syötteen alkioiden määrän (tai muun vastaavan suureen) toinen potenssi."
  },
  {
    "id": "queue",
    "english": "queue",
    "englishLink": "https://en.wikipedia.org/wiki/Queue_(abstract_data_type)",
    "finnishLink": "",
    "finnish": "jono",
    "definition": "Peräkkäistietorakenne jossa ensimmäisenä lisätty on ensimmäisenä poistovuorossa. Muita alkioita ei voi poistaa."
  },
  {
    "id": "quick_sort",
    "english": "quick sort",
    "englishLink": "https://en.wikipedia.org/wiki/Quicksort",
    "finnishLink": "https://fi.wikipedia.org/wiki/Pikalajittelu",
    "finnish": "pikajärjestäminen",
    "definition": "Järjestämisalgoritmi joka jaottelee alkiot valittua jakoalkiota pienempiin ja suurempiin, ja kutsuu itseään rekursiivisesti näille osille."
  },
  {
    "id": "radix_sort",
    "english": "radix sort",
    "englishLink": "https://en.wikipedia.org/wiki/Radix_sort",
    "finnishLink": "https://fi.wikipedia.org/wiki/Kantalukulajittelu",
    "finnish": "kantalukujärjestäminen",
    "definition": "Järjestämisalgoritmi joka sijoittaa kussakin vaiheessa alkiot paikalleen alkioiden lukumäärätaulukon alkusumman perusteella."
  },
  {
    "id": "randomized_algorithm",
    "english": "randomized algorithm",
    "englishLink": "https://en.wikipedia.org/wiki/Randomized_algorithm",
    "finnishLink": "",
    "finnish": "satunnaisalgoritmi",
    "definition": "Algoritmi joka hyödyntää satunnaisuutta toiminnassaan."
  },
  {
    "id": "range_query",
    "english": "range query",
    "englishLink": "",
    "finnishLink": "",
    "finnish": "välikysely",
    "definition": ""
  },
  {
    "id": "recursion",
    "english": "recursion",
    "englishLink": "https://en.wikipedia.org/wiki/Recursion",
    "finnishLink": "https://fi.wikipedia.org/wiki/Rekursiivinen_algoritmi",
    "finnish": "rekursio",
    "definition": "Itseään (eri syötteellä) kutsuva algoritmi/aliohjelma."
  },
  {
    "id": "reflecsive",
    "english": "reflecsive ",
    "englishLink": "",
    "finnishLink": "",
    "finnish": "",
    "definition": ""
  },
  {
    "id": "regular_expression",
    "english": "regular expression",
    "englishLink": "https://en.wikipedia.org/wiki/Regular_expression",
    "finnishLink": "https://fi.wikipedia.org/wiki/Säännöllinen_lauseke ",
    "finnish": "säännöllinen lauseke",
    "definition": "Lauseke, joka määrittelee säännöllisen kielen (joukko merkkijonoja)."
  },
  {
    "id": "ring__circular_buffer",
    "english": "ring (circular buffer)",
    "englishLink": "https://en.wikipedia.org/wiki/Circular_buffer",
    "finnishLink": "",
    "finnish": "rengas",
    "definition": "Tietorakenne jossa jokaisella alkiolla on seuraaja."
  },
  {
    "id": "root__of_a_tree",
    "english": "root (of a tree)",
    "englishLink": "",
    "finnishLink": "",
    "finnish": "juuri",
    "definition": "Puun ainoa solmu jolla ei ole vanhempaa."
  },
  {
    "id": "rooted__tree",
    "english": "rooted (tree)",
    "englishLink": "",
    "finnishLink": "",
    "finnish": "juurellinen",
    "definition": ""
  },
  {
    "id": "rotation__in_a_balanced_tree",
    "english": "rotation (in a balanced tree)",
    "englishLink": "",
    "finnishLink": "",
    "finnish": "kierto",
    "definition": "Binääripuun 2-3:n solmun keskinäisten vanhempi-lapsi -suhteiden muutos jolla korjataan puun solmujen epätasapainoa (lasten korkeuseroja)."
  },
  {
    "id": "search_tree",
    "english": "search tree",
    "englishLink": "",
    "finnishLink": "",
    "finnish": "hakupuu",
    "definition": "(Sisä)järjestetty puu josta joukon perusoperaatiot (haku, lisäys, poisto) sekä järjestetty läpikäynti ovat tehokkaita."
  },
  {
    "id": "selection_sort",
    "english": "selection sort",
    "englishLink": "",
    "finnishLink": "https://fi.wikipedia.org/wiki/Valintalajittelu",
    "finnish": "valintajärjestäminen",
    "definition": "Järjestämisalgoritmi joka hakee kullakin kierroksella jäljelläolevan alkiotaulukon (tms) järjestyksessä ensimmäinsen alkion ja sijoittaa sen paikalleen."
  },
  {
    "id": "semi_connected__graph",
    "english": "semi connected (graph)",
    "englishLink": "https://en.wikipedia.org/wiki/Connectivity_(graph_theory)#Connected_vertices_and_graphs",
    "finnishLink": "",
    "finnish": "puoliyhtenäinen (kaikille solmupareille polku on olemassa jompaan kumpaan suuntaan)",
    "definition": "Suunnattu verkko jossa jokaisen solmuparin välillä on olemassa polku jompaan kumpaan tai molempiin suuntiin."
  },
  {
    "id": "separate_chaining",
    "english": "separate chaining",
    "englishLink": "https://en.wikipedia.org/wiki/Hash_table#Separate_chaining",
    "finnishLink": "",
    "finnish": "erillinen ketjutus",
    "definition": "Hajautuksen törmäysten käsittelytapa jossa hajautustaulun jokaisessa kotiosoitteessa (indeksissä) on lista (tms.) ja kukin alkio voidaan aina sijoittaa kotiosoitteeseen."
  },
  {
    "id": "set",
    "english": "set",
    "englishLink": "https://en.wikipedia.org/wiki/Set_(abstract_data_type)",
    "finnishLink": "",
    "finnish": "joukko",
    "definition": "Kokoelma jossa ei voi olla samaa alkiota kahdesti."
  },
  {
    "id": "shortest_path",
    "english": "shortest path",
    "englishLink": "https://en.wikipedia.org/wiki/Shortest_path_problem",
    "finnishLink": "",
    "finnish": "lyhin polku",
    "definition": "Kahden solmun välinen polku jonka kaarten painojen summa on pienin."
  },
  {
    "id": "sliding_window",
    "english": "sliding window",
    "englishLink": "",
    "finnishLink": "",
    "finnish": "liukuva ikkuna",
    "definition": "Kokoelman (tms) läpikäyminen tarkastelleen kussakin vaiheessa kiinteän mittaista osakokoelmaa siten, että kussakin vaiheessa tarkastelusta poistetaan yksi alkio (tms) ja tarkasteluun lisätään yksi alkiot."
  },
  {
    "id": "sorting",
    "english": "sorting",
    "englishLink": "https://en.wikipedia.org/wiki/Sorting",
    "finnishLink": "",
    "finnish": "järjestäminen",
    "definition": "Kokoelman alkioiden asettaminen kasvavaan järjestykseen."
  },
  {
    "id": "sorting_algorithm",
    "english": "sorting algorithm",
    "englishLink": "https://en.wikipedia.org/wiki/Sorting_algorithm",
    "finnishLink": "",
    "finnish": "järjestämisalgoritmi",
    "definition": "Algoritmi joka sijoittaa kokoelman alkiot kasvavaan (tai muuhun) järjestykseen."
  },
  {
    "id": "source_node__in_a_digraph",
    "english": "source node (in a digraph)",
    "englishLink": "https://en.wikipedia.org/wiki/Directed_graph#Basic_terminology",
    "finnishLink": "",
    "finnish": "lähtösolmu",
    "definition": "Solmu josta suunnatun verkon kaari lähtee."
  },
  {
    "id": "space_complexity",
    "english": "space complexity",
    "englishLink": "https://en.wikipedia.org/wiki/Space_complexity",
    "finnishLink": "",
    "finnish": "tilavaativuus",
    "definition": "Algoritmin käyttämän apumuistin kertaluokka syötteen alkioiden määrän (tai muun suureen) funktiona."
  },
  {
    "id": "spanning_tree",
    "english": "spanning tree",
    "englishLink": "https://en.wikipedia.org/wiki/Spanning_tree",
    "finnishLink": "",
    "finnish": "virittävä puu",
    "definition": "Verkon kaarten (minimaalinen) osajoukko joka muodostaa kaikkien solmujen yhtenäisen verkon."
  },
  {
    "id": "sparse__graph",
    "english": "sparse (graph)",
    "englishLink": "https://en.wikipedia.org/wiki/Dense_graph",
    "finnishLink": "",
    "finnish": "harva",
    "definition": "Verkko jossa on suhteellisen vähän kaaria (esimerkiksi kaarten ja solmujen määrä on samaa kertaluokkaa)."
  },
  {
    "id": "stable__sorting_algorithm",
    "english": "stable (sorting algorithm)",
    "englishLink": "https://en.wikipedia.org/wiki/Sorting_algorithm#Stability",
    "finnishLink": "",
    "finnish": "vakaa",
    "definition": "Järjestäminen joka säilyttää sellaisten alkioiden keskinäisen järjestyksen jotka ovat käytetyn (osa)avaimen mukaan samanarvoisia."
  },
  {
    "id": "stack",
    "english": "stack",
    "englishLink": "https://en.wikipedia.org/wiki/Stack_(abstract_data_type)",
    "finnishLink": "",
    "finnish": "pino",
    "definition": "Peräkkäistietorakenne jossa viimeisenä lisätty on ensimmäisenä poistovuorossa. Muita alkioita ei voi poistaa."
  },
  {
    "id": "step__of_an_algorithm",
    "english": "step (of an algorithm)",
    "englishLink": "",
    "finnishLink": "",
    "finnish": "(suoritus) askel",
    "definition": "Aikavaativuuden yksikkö."
  },
  {
    "id": "string",
    "english": "string",
    "englishLink": "https://en.wikipedia.org/wiki/String_(computer_science)",
    "finnishLink": "",
    "finnish": "merkkijono",
    "definition": "Merkkien taulukko/lista."
  },
  {
    "id": "strongly_connected__graph_or_component",
    "english": "strongly connected (graph or component)",
    "englishLink": "https://en.wikipedia.org/wiki/Strongly_connected_component",
    "finnishLink": "",
    "finnish": "vahvasti yhtenäinen",
    "definition": "Suunnattu verkko jossa jokaisesta solmusta on olemassa polku jokaiseen muuhun solmuun."
  },
  {
    "id": "subsequence__of_a_string",
    "english": "subsequence (of a string)",
    "englishLink": "https://en.wikipedia.org/wiki/Subsequence",
    "finnishLink": "",
    "finnish": "alijono",
    "definition": ""
  },
  {
    "id": "substring__of_a_string",
    "english": "substring (of a string)",
    "englishLink": "https://en.wikipedia.org/wiki/Substring",
    "finnishLink": "",
    "finnish": "osajono",
    "definition": ""
  },
  {
    "id": "suffix",
    "english": "suffix",
    "englishLink": "https://en.wikipedia.org/wiki/Substring#Suffix",
    "finnishLink": "",
    "finnish": "loppuosa",
    "definition": ""
  },
  {
    "id": "suffix_array",
    "english": "suffix array",
    "englishLink": "https://en.wikipedia.org/wiki/Suffix_array",
    "finnishLink": "",
    "finnish": "loppuosataulukko",
    "definition": "Taulukko joka sisältää (indeksit) merkkijonon kaikille loppuosille."
  },
  {
    "id": "suffix_tree",
    "english": "suffix tree",
    "englishLink": "https://en.wikipedia.org/wiki/Suffix_tree",
    "finnishLink": "",
    "finnish": "loppuosapuu",
    "definition": "Trie joka sisältää merkkijonon kaikki loppuosat."
  },
  {
    "id": "sweep_line",
    "english": "sweep line",
    "englishLink": "",
    "finnishLink": "",
    "finnish": "pyyhkäisyviiva",
    "definition": ""
  },
  {
    "id": "target_node__in_a_digraph__also_head",
    "english": "target node (in a digraph) (also head)",
    "englishLink": "https://en.wikipedia.org/wiki/Directed_graph#Basic_terminology",
    "finnishLink": "",
    "finnish": "kohdesolmu",
    "definition": "Solmu johon suunnatun verkon kaari johtaa."
  },
  {
    "id": "template__in_generics",
    "english": "template (in generics)",
    "englishLink": "https://en.wikipedia.org/wiki/Template_(C%2B%2B)",
    "finnishLink": "",
    "finnish": "",
    "definition": "Tietorakenteen (tai muun luokan) (lähdekielinen) runko johon käyttöönotettaessa lisätään alkiotyyppi. Katso myös geneerinen."
  },
  {
    "id": "time_complexity",
    "english": "time complexity",
    "englishLink": "https://en.wikipedia.org/wiki/Time_complexity",
    "finnishLink": "https://fi.wikipedia.org/wiki/Aikavaatimus",
    "finnish": "aikavaativuus",
    "definition": "Algoritmin käyttämän ajan kertaluokka syötteen alkioiden määrän (tai muun suureen) funktiona."
  },
  {
    "id": "topological_sort",
    "english": "topological sort",
    "englishLink": "https://en.wikipedia.org/wiki/Topological_sorting",
    "finnishLink": "",
    "finnish": "topologinen järjestys",
    "definition": "Järjestäminen jossa vain osalla alkioista on keskinäinen järjestys. Lopputulos kunnioittaa näitä järjestyksiä, mutta on muuten vapaa."
  },
  {
    "id": "treap__data_structure",
    "english": "treap (data structure)",
    "englishLink": "https://en.wikipedia.org/wiki/Treap",
    "finnishLink": "",
    "finnish": "prioriteetti-hakupuu",
    "definition": ""
  },
  {
    "id": "tree",
    "english": "tree",
    "englishLink": "https://en.wikipedia.org/wiki/Tree_(data_structure)",
    "finnishLink": "https://fi.wikipedia.org/wiki/Puu_(tietorakenne)",
    "finnish": "puu",
    "definition": "Solmujen hierarkia jossa on yksikäsitteinen juuri solmu  ja kullakin muulla solmulla yksikäsitteinen vanhempi."
  },
  {
    "id": "trie",
    "english": "trie",
    "englishLink": "https://en.wikipedia.org/wiki/Trie",
    "finnishLink": "",
    "finnish": "trie",
    "definition": "Puurakenne jossa solmu kuvaa yhtä avaimen merkkiä ja polku juuresta alas kuvaa avainta."
  },
  {
    "id": "type_parameter",
    "english": "type parameter",
    "englishLink": "https://en.wikipedia.org/wiki/Generic_programming",
    "finnishLink": "",
    "finnish": "tyyppiparametri",
    "definition": "Kokoelman (tms.) alkioiden tyyppi. Kokoelman esittelyssä muodollinen tyyppiparametri, kokoelmaa käytettäessä todellinen tyyppiparametri."
  },
  {
    "id": "undecidable_problem",
    "english": "undecidable problem ",
    "englishLink": "https://en.wikipedia.org/wiki/Undecidable_problem",
    "finnishLink": "",
    "finnish": "ratkeamaton ongelma",
    "definition": "Ongelma johon ei voida laatia algoritmia joka aina tuottaa oikean vastauksen. "
  },
  {
    "id": "undirected__graph",
    "english": "undirected (graph)",
    "englishLink": "https://en.wikipedia.org/wiki/Graph_(discrete_mathematics)#Graph",
    "finnishLink": "",
    "finnish": "suuntaamaton (verkko)",
    "definition": "Verkko jossa solmujen väliset suhteet (kaaret) ovat symmetrisiä (kaksisuuntaisia)."
  },
  {
    "id": "union-find",
    "english": "union-find",
    "englishLink": "https://en.wikipedia.org/wiki/Disjoint-set_data_structure",
    "finnishLink": "",
    "finnish": "etsi-liitä",
    "definition": "Tietorakenne jossa on tehokkaat operaatiot kunkin alkion joukon (puun juuren) selvittämiseen sekä joukkojen (puiden) yhdistämiseen."
  },
  {
    "id": "weakly_connected__graph",
    "english": "weakly connected (graph)",
    "englishLink": "https://en.wikipedia.org/wiki/Connectivity_(graph_theory)#Connected_vertices_and_graphs",
    "finnishLink": "",
    "finnish": "heikosti yhtenäinen (verkko)",
    "definition": ""
  },
  {
    "id": "weighted__graph",
    "english": "weighted (graph)",
    "englishLink": "https://en.wikipedia.org/wiki/Graph_(discrete_mathematics)#Weighted_graph",
    "finnishLink": "",
    "finnish": "painotettu",
    "definition": "Verkko jonka kaarella (tai joskus solmulla) on jokin lukuarvo (joka mallintaa sen arvon/hinnan/kapasiteetin/tms sovelluksessa)."
  }
]
